{
  "swagger": "2.0",
  "info": {
    "version": "1.0.0",
    "title": "AdventureWorks Products API",
    "description": "AdventureWorks Products API",
    "license": {
      "name": "MIT",
      "url": "https://opensource.org/licenses/MIT"
    }
  },
  "host": "localhost:3080",
  "basePath": "/",
  "tags": [
    {
      "name": "Products",
      "description": "API for products in the system"
    }
  ],
  "schemes": [
    "http"
  ],
  "consumes": [
    "application/json"
  ],
  "produces": [
    "application/json"
  ],
  "paths": {
    "/products/": {
      "get": {
        "tags": ["Products"],
        "summary": "Get all products in system",
        "responses": {
          "200": {
            "description": "All products have been found",
            "schema": {
              "$ref": "#/definitions/Products"
            }
          },
          "500": {
            "description": "Internal Server Error"
          }
        }
      },
      "post": {
        "tags": ["Products"],
        "summary": "Add one product in system",
        "parameters": [
          {
            "name": "name",
            "in": "body",
            "schema": {}
          }
        ],
        "responses": {
          "201": {
            "description": "Product created successfully"
          },
          "500": {
            "description": "Internal server error"
          }
        }
      }
    }
  },
  "definitions": {
    "Product": {
      "required": [
        "ProductID",
        "Name",
        "ProductNumber",
        "MakeFlag",
        "FinishedGoodsFlag",
        "Color",
        "SafetyStockLevel",
        "ReorderPoint",
        "StandardCost",
        "ListPrice",
        "Size",
        "SizeUnitMeasureCode",
        "WeightUnitMeasureCode",
        "Weight",
        "DaysToManufacture",
        "Class",
        "Style",
        "ProductSubcategoryID",
        "ProductModelID",
        "SellStartDate",
        "SellEndDate",
        "DiscontinuedDate",
        "rowguid",
        "ModifiedDate"
      ],
      "properties": {
        "productID": {
          "type": "integer",
          "uniqueItems": true
        },
        "name": {
          "type": "string"
        },
        "ProductNumber": {
          "type": "string"
        },
        "MakeFlag": {
          "type": "boolean"
        },
        "FinishedGoodsFlag": {
          "type": "boolean"
        },
        "Color": {
          "type": "string"
        },
        "SafetyStockLevel": {
          "type": "number"
        },
        "ReorderPoint": {
          "type": "number"
        },
        "StandardCost": {
          "type": "number"
        },
        "ListPrice": {
          "type": "number"
        },
        "Size": {
          "type": "number"
        },
        "SizeUnitMeasureCode": {
          "type": "string"
        },
        "WeightUnitMeasureCode": {
          "type": "string"
        },
        "Weight": {
          "type": "number"
        },
        "DaysToManufacture": {
          "type": "number"
        },
        "ProductLine": {
          "type": "number"
        },
        "Class": {
          "type": "number"
        },
        "Style": {
          "type": "number"
        },
        "ProductSubcategoryID": {
          "type": "number"
        },
        "ProductModelID": {
          "type": "number"
        },
        "SellStartDate": {
          "type": "string",
          "format": "date-time"
        },
        "SellEndDate": {
          "type": "string",
          "format": "date-time"
        },
        "DiscontinuedDate": {
          "type": "string",
          "format": "date-time"
        },
        "rowguid": {
          "type": "number",
          "uniqueItems": true
        },
        "ModifiedDate": {
          "type": "string",
          "format": "date-time"
        }
      }
    },
    "Products": {
      "type": "array",
      "$ref": "#/definitions/Product"
    }
  }
}

